r_as_a_rockstar – Code in R like a rockstar 🎸
…
📦tidyr

tidyverse

Original data

#
#
#
#
tidyr::relig_income |> 
  print(width = 50, n = 10)

# A tibble: 18 × 11
   religion  `<$10k` `$10-20k` `$20-30k` `$30-40k`
   <chr>       <dbl>     <dbl>     <dbl>     <dbl>
 1 Agnostic       27        34        60        81
 2 Atheist        12        27        37        52
 3 Buddhist       27        21        30        34
 4 Catholic      418       617       732       670
 5 Don’t kn…      15        14        15        11
 6 Evangeli…     575       869      1064       982
 7 Hindu           1         9         7         9
 8 Historic…     228       244       236       238
 9 Jehovah'…      20        27        24        24
10 Jewish         19        19        25        25
# ℹ 8 more rows
# ℹ 6 more variables: `$40-50k` <dbl>,
#   `$50-75k` <dbl>, `$75-100k` <dbl>,
#   `$100-150k` <dbl>, `>150k` <dbl>,
#   `Don't know/refused` <dbl>

tidyr::pivot_longer()

tidyr::relig_income |>
  tidyr::pivot_longer(
    !religion, 
    names_to = "income",  
    values_to = "count"
  )

# A tibble: 180 × 3
   religion income             count
   <chr>    <chr>              <dbl>
 1 Agnostic <$10k                 27
 2 Agnostic $10-20k               34
 3 Agnostic $20-30k               60
 4 Agnostic $30-40k               81
 5 Agnostic $40-50k               76
 6 Agnostic $50-75k              137
 7 Agnostic $75-100k             122
 8 Agnostic $100-150k            109
 9 Agnostic >150k                 84
10 Agnostic Don't know/refused    96
# ℹ 170 more rows

📦tidyr

tidyverse

Original data

#
#
tidyr::fish_encounters

# A tibble: 114 × 3
   fish  station  seen
   <fct> <fct>   <int>
 1 4842  Release     1
 2 4842  I80_1       1
 3 4842  Lisbon      1
 4 4842  Rstr        1
 5 4842  Base_TD     1
 6 4842  BCE         1
 7 4842  BCW         1
 8 4842  BCE2        1
 9 4842  BCW2        1
10 4842  MAE         1
# ℹ 104 more rows

tidyr::pivot_wider()

tidyr::fish_encounters |> 
  tidyr::pivot_wider(names_from = station, values_from = seen) |>
  print(width = 60, n = 10)

# A tibble: 19 × 12
   fish  Release I80_1 Lisbon  Rstr Base_TD   BCE   BCW
   <fct>   <int> <int>  <int> <int>   <int> <int> <int>
 1 4842        1     1      1     1       1     1     1
 2 4843        1     1      1     1       1     1     1
 3 4844        1     1      1     1       1     1     1
 4 4845        1     1      1     1       1    NA    NA
 5 4847        1     1      1    NA      NA    NA    NA
 6 4848        1     1      1     1      NA    NA    NA
 7 4849        1     1     NA    NA      NA    NA    NA
 8 4850        1     1     NA     1       1     1     1
 9 4851        1     1     NA    NA      NA    NA    NA
10 4854        1     1     NA    NA      NA    NA    NA
# ℹ 9 more rows
# ℹ 4 more variables: BCE2 <int>, BCW2 <int>, MAE <int>,
#   MAW <int>
…
